^C:\USERS\YAVUZ_4ZJU3TN\SOURCE\REPOS\GRAPHICSTOOL\GRAPHICSTOOL\MAIN.CPP|C:\USERS\YAVUZ_4ZJU3TN\SOURCE\REPOS\GRAPHICSTOOL\GRAPHICSTOOL\MAINGAME.CPP
C:\USERS\YAVUZ_4ZJU3TN\SOURCE\REPOS\GRAPHICSTOOL\GRAPHICSTOOL\DEBUG\VC142.PDB
C:\USERS\YAVUZ_4ZJU3TN\SOURCE\REPOS\GRAPHICSTOOL\GRAPHICSTOOL\DEBUG\VC142.IDB
C:\USERS\YAVUZ_4ZJU3TN\SOURCE\REPOS\GRAPHICSTOOL\GRAPHICSTOOL\DEBUG\MAINGAME.OBJ
C:\USERS\YAVUZ_4ZJU3TN\SOURCE\REPOS\GRAPHICSTOOL\GRAPHICSTOOL\DEBUG\MAIN.OBJ
^C:\USERS\YAVUZ_4ZJU3TN\SOURCE\REPOS\GRAPHICSTOOL\GRAPHICSTOOL\MAIN.CPP
C:\USERS\YAVUZ_4ZJU3TN\SOURCE\REPOS\GRAPHICSTOOL\GRAPHICSTOOL\DEBUG\VC142.PDB
^C:\USERS\YAVUZ_4ZJU3TN\SOURCE\REPOS\GRAPHICSTOOL\GRAPHICSTOOL\MAINGAME.CPP
C:\USERS\YAVUZ_4ZJU3TN\SOURCE\REPOS\GRAPHICSTOOL\GRAPHICSTOOL\DEBUG\VC142.PDB
